module gitlab.com/hacklunch/ntp

go 1.12

require (
	github.com/secure-io/siv-go v0.0.0-20180922214919-5ff40651e2c4
	github.com/stretchr/objx v0.2.0 // indirect
	github.com/stretchr/testify v1.3.0
	golang.org/x/crypto v0.0.0-20190701094942-4def268fd1a4 // indirect
	golang.org/x/net v0.0.0-20190628185345-da137c7871d7
	golang.org/x/sys v0.0.0-20190712062909-fae7ac547cb7 // indirect
	golang.org/x/text v0.3.2 // indirect
	golang.org/x/tools v0.0.0-20190719005602-e377ae9d6386 // indirect
)
